…
``` r
Q2_summary <- vancouver_trees %>%    
    group_by(neighbourhood_name, species_name) %>%  #this is specifying the variables, and their order of consideration 
    summarise (n = n()) %>% #this is creating the new column n, which counts the number of observations of each species in each neighbourhood 
    mutate(freq = n / sum(n)) #this is creating the new column freq, which is the proportion of each species in each neighbourhood 
```

    ## `summarise()` has grouped output by 'neighbourhood_name'. You can override
    ## using the `.groups` argument.

``` r
print(Q2_summary) #this is printing the tibble 
```

    ## # A tibble: 3,056 × 4
    ## # Groups:   neighbourhood_name [22]
    ##    neighbourhood_name species_name       n     freq
    ##    <chr>              <chr>          <int>    <dbl>
    ##  1 ARBUTUS-RIDGE      ABIES              2 0.000387
    ##  2 ARBUTUS-RIDGE      ACERIFOLIA   X   103 0.0199  
    ##  3 ARBUTUS-RIDGE      ACUTISSIMA         5 0.000967
    ##  4 ARBUTUS-RIDGE      ALNIFOLIA         16 0.00310 
    ##  5 ARBUTUS-RIDGE      AMERICANA        225 0.0435  
    ##  6 ARBUTUS-RIDGE      AQUIFOLIUM         3 0.000580
    ##  7 ARBUTUS-RIDGE      ARIA              19 0.00368 
    ##  8 ARBUTUS-RIDGE      ARNOLDIANA X       4 0.000774
    ##  9 ARBUTUS-RIDGE      AUCUPARIA         16 0.00310 
    ## 10 ARBUTUS-RIDGE      AVIUM             15 0.00290 
    ## # ℹ 3,046 more rows
…
## Question 4: Which neighbourhood on average has the largest trees by diameter?

### Summarizing

Here I will compute the number of observations in *neighbourhood_name*,
a categorical variable. This does not fully answer the question, but it
helps to understand the *neighbourhood_name* variable.

``` r
Q4_summary <- count(vancouver_trees, neighbourhood_name) #this is making a table counting the number of observations in each group for the neighbourhood_name variable

print(Q4_summary) #this is printing the tibble  
```

    ## # A tibble: 22 × 2
    ##    neighbourhood_name           n
    ##    <chr>                    <int>
    ##  1 ARBUTUS-RIDGE             5169
    ##  2 DOWNTOWN                  5159
    ##  3 DUNBAR-SOUTHLANDS         9415
    ##  4 FAIRVIEW                  4002
    ##  5 GRANDVIEW-WOODLAND        6703
    ##  6 HASTINGS-SUNRISE         10547
    ##  7 KENSINGTON-CEDAR COTTAGE 11042
    ##  8 KERRISDALE                6936
    ##  9 KILLARNEY                 6148
    ## 10 KITSILANO                 8115
    ## # ℹ 12 more rows
…
``` r
 untidy_data <- vancouver_trees %>%
    unite(col = species_and_common_name, c("species_name", "common_name"), sep = ", ") #this is combining the two columns, renaming the new column, and making the values separated by a comma

print(untidy_data) #this is printing the tibble of untidy data 
```

    ## # A tibble: 146,611 × 19
    ##    tree_id civic_number std_street    genus_name species_and_common_name        
    ##      <dbl>        <dbl> <chr>         <chr>      <chr>                          
    ##  1  149556          494 W 58TH AV     ULMUS      AMERICANA, BRANDON ELM         
    ##  2  149563          450 W 58TH AV     ZELKOVA    SERRATA, JAPANESE ZELKOVA      
    ##  3  149579         4994 WINDSOR ST    STYRAX     JAPONICA, JAPANESE SNOWBELL    
    ##  4  149590          858 E 39TH AV     FRAXINUS   AMERICANA, AUTUMN APPLAUSE ASH 
    ##  5  149604         5032 WINDSOR ST    ACER       CAMPESTRE, HEDGE MAPLE         
    ##  6  149616          585 W 61ST AV     PYRUS      CALLERYANA, CHANTICLEER PEAR   
    ##  7  149617         4909 SHERBROOKE ST ACER       PLATANOIDES, COLUMNAR NORWAY M…
    ##  8  149618         4925 SHERBROOKE ST ACER       PLATANOIDES, COLUMNAR NORWAY M…
    ##  9  149619         4969 SHERBROOKE ST ACER       PLATANOIDES, COLUMNAR NORWAY M…
    ## 10  149625          720 E 39TH AV     FRAXINUS   AMERICANA, AUTUMN APPLAUSE ASH 
    ## # ℹ 146,601 more rows
    ## # ℹ 14 more variables: cultivar_name <chr>, assigned <chr>, root_barrier <chr>,
    ## #   plant_area <chr>, on_street_block <dbl>, on_street <chr>,
    ## #   neighbourhood_name <chr>, street_side_name <chr>, height_range_id <dbl>,
    ## #   diameter <dbl>, curb <chr>, date_planted <date>, longitude <dbl>,
    ## #   latitude <dbl>

``` r
 tidy_data <- untidy_data %>%
    separate(col = species_and_common_name, c("species_name", "common_name"), sep = ", ") #this is combining the two columns, renaming the new column, and making the values separated by a comma
```

    ## Warning: Expected 2 pieces. Additional pieces discarded in 155 rows [1641, 3836, 5376,
    ## 5445, 6067, 8717, 9037, 9634, 12262, 14122, 15152, 16942, 17184, 18231, 19100,
    ## 19390, 19744, 20667, 21057, 23433, ...].

``` r
print(tidy_data) #this is printing the tibble of tidy data 
```

    ## # A tibble: 146,611 × 20
    ##    tree_id civic_number std_street    genus_name species_name common_name       
    ##      <dbl>        <dbl> <chr>         <chr>      <chr>        <chr>             
    ##  1  149556          494 W 58TH AV     ULMUS      AMERICANA    BRANDON ELM       
    ##  2  149563          450 W 58TH AV     ZELKOVA    SERRATA      JAPANESE ZELKOVA  
    ##  3  149579         4994 WINDSOR ST    STYRAX     JAPONICA     JAPANESE SNOWBELL 
    ##  4  149590          858 E 39TH AV     FRAXINUS   AMERICANA    AUTUMN APPLAUSE A…
    ##  5  149604         5032 WINDSOR ST    ACER       CAMPESTRE    HEDGE MAPLE       
    ##  6  149616          585 W 61ST AV     PYRUS      CALLERYANA   CHANTICLEER PEAR  
    ##  7  149617         4909 SHERBROOKE ST ACER       PLATANOIDES  COLUMNAR NORWAY M…
    ##  8  149618         4925 SHERBROOKE ST ACER       PLATANOIDES  COLUMNAR NORWAY M…
    ##  9  149619         4969 SHERBROOKE ST ACER       PLATANOIDES  COLUMNAR NORWAY M…
    ## 10  149625          720 E 39TH AV     FRAXINUS   AMERICANA    AUTUMN APPLAUSE A…
    ## # ℹ 146,601 more rows
    ## # ℹ 14 more variables: cultivar_name <chr>, assigned <chr>, root_barrier <chr>,
    ## #   plant_area <chr>, on_street_block <dbl>, on_street <chr>,
    ## #   neighbourhood_name <chr>, street_side_name <chr>, height_range_id <dbl>,
    ## #   diameter <dbl>, curb <chr>, date_planted <date>, longitude <dbl>,
    ## #   latitude <dbl>
…
I will be making a version of the *vancouver_trees* dataset which better
suits the analysis for my research questions. I will be utilizing the
select(), filter(), arrange(), and group_by() functions to achieve this.

``` r
edited_vancouver_trees <- vancouver_trees %>% #this is creating the new tibble
  select(tree_id, common_name, neighbourhood_name, diameter) %>% #this is removing all columns except for these 4 I am interested in 
  filter(neighbourhood_name == "WEST POINT GREY") %>% #this is filtering the neighbourhood_name to only include the West Point Grey neighbourhood
  arrange(min_rank(desc(diameter))) %>% #this is arranging the data in descending order of the diameter, so the largest diameter is first 
  group_by(common_name) #this is grouping by common name, so that trees with the same diameter will then be ordered alphabetically by common name
  
print(edited_vancouver_trees) #this is printing the new tibble 
```

    ## # A tibble: 4,939 × 4
    ## # Groups:   common_name [271]
    ##    tree_id common_name          neighbourhood_name diameter
    ##      <dbl> <chr>                <chr>                 <dbl>
    ##  1  261557 WESTERN RED CEDAR    WEST POINT GREY        61.6
    ##  2   14112 BIGLEAF MAPLE        WEST POINT GREY        56  
    ##  3  114537 PONDEROSA PINE       WEST POINT GREY        54.5
    ##  4  127395 WESTERN RED CEDAR    WEST POINT GREY        54.5
    ##  5   11380 SILVER MAPLE         WEST POINT GREY        51  
    ##  6   55287 NORWAY MAPLE         WEST POINT GREY        51  
    ##  7    7192 BIGLEAF MAPLE        WEST POINT GREY        50  
    ##  8   72765 COMMON HORSECHESTNUT WEST POINT GREY        49.5
    ##  9   12571 SILVER MAPLE         WEST POINT GREY        49.5
    ## 10   70730 SILVER MAPLE         WEST POINT GREY        48  
    ## # ℹ 4,929 more rows
…
